{ "_id" : { "$oid" : "545b3abde5b168df7a21e47d" }, "attrs" : { "IvFile" : [ { "value" : { "typeName" : "::memoryx::MongoDBRefBase", "value" : { "dbName" : "memdb", "docId" : "545b3abde5b168df7a21e47b" } } } ], "IvFileCollision" : [ { "value" : { "typeName" : "::memoryx::MongoDBRefBase", "value" : { "dbName" : "memdb", "docId" : "545b3abde5b168df7a21e47b" } } } ], "ManipulationFile" : [ { "value" : { "typeName" : "::memoryx::MongoDBRefBase", "value" : { "dbName" : "memdb", "docId" : "545b3abde5b168df7a21e47c" } } } ], "parentClasses" : [] }, "name" : "ControlTable", "type" : "::memoryx::ObjectClassBase" }
{ "_id" : { "$oid" : "545b3abde5b168df7a21e480" }, "attrs" : { "IvFile" : [ { "value" : { "typeName" : "::memoryx::MongoDBRefBase", "value" : { "dbName" : "memdb", "docId" : "545b3abde5b168df7a21e47e" } } } ], "IvFileCollision" : [ { "value" : { "typeName" : "::memoryx::MongoDBRefBase", "value" : { "dbName" : "memdb", "docId" : "545b3abde5b168df7a21e47e" } } } ], "ManipulationFile" : [ { "value" : { "typeName" : "::memoryx::MongoDBRefBase", "value" : { "dbName" : "memdb", "docId" : "545b3abde5b168df7a21e47f" } } } ], "parentClasses" : [] }, "name" : "DishWasher", "type" : "::memoryx::ObjectClassBase" }
{ "_id" : { "$oid" : "545b3abde5b168df7a21e483" }, "attrs" : { "IvFile" : [ { "value" : { "typeName" : "::memoryx::MongoDBRefBase", "value" : { "dbName" : "memdb", "docId" : "545b3abde5b168df7a21e481" } } } ], "IvFileCollision" : [ { "value" : { "typeName" : "::memoryx::MongoDBRefBase", "value" : { "dbName" : "memdb", "docId" : "545b3abde5b168df7a21e481" } } } ], "ManipulationFile" : [ { "value" : { "typeName" : "::memoryx::MongoDBRefBase", "value" : { "dbName" : "memdb", "docId" : "545b3abde5b168df7a21e482" } } } ], "parentClasses" : [] }, "name" : "Fridge", "type" : "::memoryx::ObjectClassBase" }
{ "_id" : { "$oid" : "545b3abde5b168df7a21e486" }, "attrs" : { "IvFile" : [ { "value" : { "typeName" : "::memoryx::MongoDBRefBase", "value" : { "dbName" : "memdb", "docId" : "545b3abde5b168df7a21e484" } } } ], "IvFileCollision" : [ { "value" : { "typeName" : "::memoryx::MongoDBRefBase", "value" : { "dbName" : "memdb", "docId" : "545b3abde5b168df7a21e484" } } } ], "ManipulationFile" : [ { "value" : { "typeName" : "::memoryx::MongoDBRefBase", "value" : { "dbName" : "memdb", "docId" : "545b3abde5b168df7a21e485" } } } ], "parentClasses" : [] }, "name" : "LowerSideboard", "type" : "::memoryx::ObjectClassBase" }
{ "_id" : { "$oid" : "545b3abde5b168df7a21e489" }, "attrs" : { "IvFile" : [ { "value" : { "typeName" : "::memoryx::MongoDBRefBase", "value" : { "dbName" : "memdb", "docId" : "545b3abde5b168df7a21e487" } } } ], "IvFileCollision" : [ { "value" : { "typeName" : "::memoryx::MongoDBRefBase", "value" : { "dbName" : "memdb", "docId" : "545b3abde5b168df7a21e487" } } } ], "ManipulationFile" : [ { "value" : { "typeName" : "::memoryx::MongoDBRefBase", "value" : { "dbName" : "memdb", "docId" : "545b3abde5b168df7a21e488" } } } ], "parentClasses" : [] }, "name" : "Oven", "type" : "::memoryx::ObjectClassBase" }
{ "_id" : { "$oid" : "545b3abde5b168df7a21e48d" }, "attrs" : { "IvFile" : [ { "value" : { "typeName" : "::memoryx::MongoDBRefBase", "value" : { "dbName" : "memdb", "docId" : "545b3abde5b168df7a21e48a" } } } ], "IvFileCollision" : [ { "value" : { "typeName" : "::memoryx::MongoDBRefBase", "value" : { "dbName" : "memdb", "docId" : "545b3abde5b168df7a21e48b" } } } ], "ManipulationFile" : [ { "value" : { "typeName" : "::memoryx::MongoDBRefBase", "value" : { "dbName" : "memdb", "docId" : "545b3abde5b168df7a21e48c" } } } ], "parentClasses" : [] }, "name" : "LowerSink", "type" : "::memoryx::ObjectClassBase" }
{ "_id" : { "$oid" : "545b3abde5b168df7a21e490" }, "attrs" : { "IvFile" : [ { "value" : { "typeName" : "::memoryx::MongoDBRefBase", "value" : { "dbName" : "memdb", "docId" : "545b3abde5b168df7a21e48e" } } } ], "IvFileCollision" : [ { "value" : { "typeName" : "::memoryx::MongoDBRefBase", "value" : { "dbName" : "memdb", "docId" : "545b3abde5b168df7a21e48e" } } } ], "ManipulationFile" : [ { "value" : { "typeName" : "::memoryx::MongoDBRefBase", "value" : { "dbName" : "memdb", "docId" : "545b3abde5b168df7a21e48f" } } } ], "parentClasses" : [] }, "name" : "WallSink", "type" : "::memoryx::ObjectClassBase" }
{ "_id" : { "$oid" : "545b3abde5b168df7a21e493" }, "attrs" : { "IvFile" : [ { "value" : { "typeName" : "::memoryx::MongoDBRefBase", "value" : { "dbName" : "memdb", "docId" : "545b3abde5b168df7a21e491" } } } ], "IvFileCollision" : [ { "value" : { "typeName" : "::memoryx::MongoDBRefBase", "value" : { "dbName" : "memdb", "docId" : "545b3abde5b168df7a21e491" } } } ], "ManipulationFile" : [ { "value" : { "typeName" : "::memoryx::MongoDBRefBase", "value" : { "dbName" : "memdb", "docId" : "545b3abde5b168df7a21e492" } } } ], "parentClasses" : [] }, "name" : "TableA", "type" : "::memoryx::ObjectClassBase" }
{ "_id" : { "$oid" : "545b3abde5b168df7a21e496" }, "attrs" : { "IvFile" : [ { "value" : { "typeName" : "::memoryx::MongoDBRefBase", "value" : { "dbName" : "memdb", "docId" : "545b3abde5b168df7a21e494" } } } ], "IvFileCollision" : [ { "value" : { "typeName" : "::memoryx::MongoDBRefBase", "value" : { "dbName" : "memdb", "docId" : "545b3abde5b168df7a21e494" } } } ], "ManipulationFile" : [ { "value" : { "typeName" : "::memoryx::MongoDBRefBase", "value" : { "dbName" : "memdb", "docId" : "545b3abde5b168df7a21e495" } } } ], "parentClasses" : [] }, "name" : "TableC", "type" : "::memoryx::ObjectClassBase" }
{ "_id" : { "$oid" : "545b3abde5b168df7a21e499" }, "attrs" : { "IvFile" : [ { "value" : { "typeName" : "::memoryx::MongoDBRefBase", "value" : { "dbName" : "memdb", "docId" : "545b3abde5b168df7a21e497" } } } ], "IvFileCollision" : [ { "value" : { "typeName" : "::memoryx::MongoDBRefBase", "value" : { "dbName" : "memdb", "docId" : "545b3abde5b168df7a21e497" } } } ], "ManipulationFile" : [ { "value" : { "typeName" : "::memoryx::MongoDBRefBase", "value" : { "dbName" : "memdb", "docId" : "545b3abde5b168df7a21e498" } } } ], "parentClasses" : [] }, "name" : "TableB", "type" : "::memoryx::ObjectClassBase" }
{ "_id" : { "$oid" : "545b3abde5b168df7a21e49c" }, "attrs" : { "IvFile" : [ { "value" : { "typeName" : "::memoryx::MongoDBRefBase", "value" : { "dbName" : "memdb", "docId" : "545b3abde5b168df7a21e49a" } } } ], "IvFileCollision" : [ { "value" : { "typeName" : "::memoryx::MongoDBRefBase", "value" : { "dbName" : "memdb", "docId" : "545b3abde5b168df7a21e49a" } } } ], "ManipulationFile" : [ { "value" : { "typeName" : "::memoryx::MongoDBRefBase", "value" : { "dbName" : "memdb", "docId" : "545b3abde5b168df7a21e49b" } } } ], "parentClasses" : [] }, "name" : "UpperSideboard", "type" : "::memoryx::ObjectClassBase" }
{ "_id" : { "$oid" : "545b3abde5b168df7a21e49f" }, "attrs" : { "IvFile" : [ { "value" : { "typeName" : "::memoryx::MongoDBRefBase", "value" : { "dbName" : "memdb", "docId" : "545b3abde5b168df7a21e49d" } } } ], "IvFileCollision" : [ { "value" : { "typeName" : "::memoryx::MongoDBRefBase", "value" : { "dbName" : "memdb", "docId" : "545b3abde5b168df7a21e49d" } } } ], "ManipulationFile" : [ { "value" : { "typeName" : "::memoryx::MongoDBRefBase", "value" : { "dbName" : "memdb", "docId" : "545b3abde5b168df7a21e49e" } } } ], "parentClasses" : [] }, "name" : "UpperSink", "type" : "::memoryx::ObjectClassBase" }
{ "_id" : { "$oid" : "545b3abde5b168df7a21e4a2" }, "attrs" : { "IvFile" : [ { "value" : { "typeName" : "::memoryx::MongoDBRefBase", "value" : { "dbName" : "memdb", "docId" : "545b3abde5b168df7a21e4a0" } } } ], "IvFileCollision" : [ { "value" : { "typeName" : "::memoryx::MongoDBRefBase", "value" : { "dbName" : "memdb", "docId" : "545b3abde5b168df7a21e4a0" } } } ], "ManipulationFile" : [ { "value" : { "typeName" : "::memoryx::MongoDBRefBase", "value" : { "dbName" : "memdb", "docId" : "545b3abde5b168df7a21e4a1" } } } ], "parentClasses" : [] }, "name" : "Windows", "type" : "::memoryx::ObjectClassBase" }
{ "_id" : { "$oid" : "54ba8293a9f0d9330102ace6" }, "attrs" : { "IvFile" : [ { "value" : { "typeName" : "::memoryx::MongoDBRefBase", "value" : { "dbName" : "memdb", "docId" : "54ba8293a9f0d9330102ace4" } } } ], "IvFileCollision" : [ { "value" : { "typeName" : "::memoryx::MongoDBRefBase", "value" : { "dbName" : "memdb", "docId" : "54ba8293a9f0d9330102ace4" } } } ], "ManipulationFile" : [ { "value" : { "typeName" : "::memoryx::MongoDBRefBase", "value" : { "dbName" : "memdb", "docId" : "54ba8293a9f0d9330102ace5" } } } ], "defaultMotionModel" : [ { "value" : { "typeName" : "::armarx::StringVariantData", "value" : "Static" } } ], "parentClasses" : [ { "value" : { "typeName" : "::armarx::StringVariantData", "value" : "" } } ], "recognitionMethod" : [ { "value" : { "typeName" : "::armarx::StringVariantData", "value" : "<none>" } } ] }, "name" : "Sponge", "type" : "::memoryx::ObjectClassBase" }
