{ "_id" : { "$oid" : "54bc2b363d76ac01863c7f4e" }, "attrs" : { "action" : [ { "value" : { "typeName" : "::memoryx::EntityRefBase", "value" : { "entityId" : "54bc2b363d76ac01863c7f4b", "entityName" : "Approach", "memoryName" : "OAGMemory", "segmentName" : "oag_actions" } } } ], "endNode" : [ { "value" : { "typeName" : "::memoryx::EntityRefBase", "value" : { "entityId" : "54bc2b45ea5332d64bb04f11", "entityName" : "", "memoryName" : "OAGMemory", "segmentName" : "oag_nodes" } } } ], "startNode" : [ { "value" : { "typeName" : "::memoryx::EntityRefBase", "value" : { "entityId" : "54bc2b45ea5332d64bb04f0f", "entityName" : "", "memoryName" : "OAGMemory", "segmentName" : "oag_nodes" } } } ] }, "name" : "", "type" : "::oag::EdgeBase" }
{ "_id" : { "$oid" : "54bc2b363d76ac01863c7f52" }, "attrs" : { "action" : [ { "value" : { "typeName" : "::memoryx::EntityRefBase", "value" : { "entityId" : "54bc2b363d76ac01863c7f4f", "entityName" : "TransientWiping", "memoryName" : "OAGMemory", "segmentName" : "oag_actions" } } } ], "endNode" : [ { "value" : { "typeName" : "::memoryx::EntityRefBase", "value" : { "entityId" : "54bc2b45ea5332d64bb04f11", "entityName" : "", "memoryName" : "OAGMemory", "segmentName" : "oag_nodes" } } } ], "startNode" : [ { "value" : { "typeName" : "::memoryx::EntityRefBase", "value" : { "entityId" : "54bc2b45ea5332d64bb04f11", "entityName" : "", "memoryName" : "OAGMemory", "segmentName" : "oag_nodes" } } } ] }, "name" : "", "type" : "::oag::EdgeBase" }
{ "_id" : { "$oid" : "54bc2b363d76ac01863c7f56" }, "attrs" : { "action" : [ { "value" : { "typeName" : "::memoryx::EntityRefBase", "value" : { "entityId" : "54bc2b363d76ac01863c7f53", "entityName" : "CircleWiping", "memoryName" : "OAGMemory", "segmentName" : "oag_actions" } } } ], "endNode" : [ { "value" : { "typeName" : "::memoryx::EntityRefBase", "value" : { "entityId" : "54bc2b45ea5332d64bb04f11", "entityName" : "", "memoryName" : "OAGMemory", "segmentName" : "oag_nodes" } } } ], "startNode" : [ { "value" : { "typeName" : "::memoryx::EntityRefBase", "value" : { "entityId" : "54bc2b45ea5332d64bb04f11", "entityName" : "", "memoryName" : "OAGMemory", "segmentName" : "oag_nodes" } } } ] }, "name" : "", "type" : "::oag::EdgeBase" }
{ "_id" : { "$oid" : "54bc2b373d76ac01863c7f5a" }, "attrs" : { "action" : [ { "value" : { "typeName" : "::memoryx::EntityRefBase", "value" : { "entityId" : "54bc2b363d76ac01863c7f57", "entityName" : "SpotWiping", "memoryName" : "OAGMemory", "segmentName" : "oag_actions" } } } ], "endNode" : [ { "value" : { "typeName" : "::memoryx::EntityRefBase", "value" : { "entityId" : "54bc2b45ea5332d64bb04f11", "entityName" : "", "memoryName" : "OAGMemory", "segmentName" : "oag_nodes" } } } ], "startNode" : [ { "value" : { "typeName" : "::memoryx::EntityRefBase", "value" : { "entityId" : "54bc2b45ea5332d64bb04f11", "entityName" : "", "memoryName" : "OAGMemory", "segmentName" : "oag_nodes" } } } ] }, "name" : "", "type" : "::oag::EdgeBase" }
{ "_id" : { "$oid" : "54bc2b373d76ac01863c7f5e" }, "attrs" : { "action" : [ { "value" : { "typeName" : "::memoryx::EntityRefBase", "value" : { "entityId" : "54bc2b373d76ac01863c7f5b", "entityName" : "XLineWiping", "memoryName" : "OAGMemory", "segmentName" : "oag_actions" } } } ], "endNode" : [ { "value" : { "typeName" : "::memoryx::EntityRefBase", "value" : { "entityId" : "54bc2b45ea5332d64bb04f11", "entityName" : "", "memoryName" : "OAGMemory", "segmentName" : "oag_nodes" } } } ], "startNode" : [ { "value" : { "typeName" : "::memoryx::EntityRefBase", "value" : { "entityId" : "54bc2b45ea5332d64bb04f11", "entityName" : "", "memoryName" : "OAGMemory", "segmentName" : "oag_nodes" } } } ] }, "name" : "", "type" : "::oag::EdgeBase" }
{ "_id" : { "$oid" : "54bc2b373d76ac01863c7f62" }, "attrs" : { "action" : [ { "value" : { "typeName" : "::memoryx::EntityRefBase", "value" : { "entityId" : "54bc2b373d76ac01863c7f5f", "entityName" : "SpotWiping", "memoryName" : "OAGMemory", "segmentName" : "oag_actions" } } } ], "endNode" : [ { "value" : { "typeName" : "::memoryx::EntityRefBase", "value" : { "entityId" : "54bc2b45ea5332d64bb04f11", "entityName" : "", "memoryName" : "OAGMemory", "segmentName" : "oag_nodes" } } } ], "startNode" : [ { "value" : { "typeName" : "::memoryx::EntityRefBase", "value" : { "entityId" : "54bc2b45ea5332d64bb04f11", "entityName" : "", "memoryName" : "OAGMemory", "segmentName" : "oag_nodes" } } } ] }, "name" : "", "type" : "::oag::EdgeBase" }
{ "_id" : { "$oid" : "54bc2b373d76ac01863c7f66" }, "attrs" : { "action" : [ { "value" : { "typeName" : "::memoryx::EntityRefBase", "value" : { "entityId" : "54bc2b373d76ac01863c7f63", "entityName" : "CircleWiping", "memoryName" : "OAGMemory", "segmentName" : "oag_actions" } } } ], "endNode" : [ { "value" : { "typeName" : "::memoryx::EntityRefBase", "value" : { "entityId" : "54bc2b45ea5332d64bb04f11", "entityName" : "", "memoryName" : "OAGMemory", "segmentName" : "oag_nodes" } } } ], "startNode" : [ { "value" : { "typeName" : "::memoryx::EntityRefBase", "value" : { "entityId" : "54bc2b45ea5332d64bb04f11", "entityName" : "", "memoryName" : "OAGMemory", "segmentName" : "oag_nodes" } } } ] }, "name" : "", "type" : "::oag::EdgeBase" }
{ "_id" : { "$oid" : "54bc2b383d76ac01863c7f6a" }, "attrs" : { "action" : [ { "value" : { "typeName" : "::memoryx::EntityRefBase", "value" : { "entityId" : "54bc2b383d76ac01863c7f67", "entityName" : "XLineWiping", "memoryName" : "OAGMemory", "segmentName" : "oag_actions" } } } ], "endNode" : [ { "value" : { "typeName" : "::memoryx::EntityRefBase", "value" : { "entityId" : "54bc2b45ea5332d64bb04f13", "entityName" : "", "memoryName" : "OAGMemory", "segmentName" : "oag_nodes" } } } ], "startNode" : [ { "value" : { "typeName" : "::memoryx::EntityRefBase", "value" : { "entityId" : "54bc2b45ea5332d64bb04f11", "entityName" : "", "memoryName" : "OAGMemory", "segmentName" : "oag_nodes" } } } ] }, "name" : "", "type" : "::oag::EdgeBase" }
{ "_id" : { "$oid" : "54bc2b383d76ac01863c7f6e" }, "attrs" : { "action" : [ { "value" : { "typeName" : "::memoryx::EntityRefBase", "value" : { "entityId" : "54bc2b383d76ac01863c7f6b", "entityName" : "SpotWiping", "memoryName" : "OAGMemory", "segmentName" : "oag_actions" } } } ], "endNode" : [ { "value" : { "typeName" : "::memoryx::EntityRefBase", "value" : { "entityId" : "54bc2b45ea5332d64bb04f12", "entityName" : "", "memoryName" : "OAGMemory", "segmentName" : "oag_nodes" } } } ], "startNode" : [ { "value" : { "typeName" : "::memoryx::EntityRefBase", "value" : { "entityId" : "54bc2b45ea5332d64bb04f13", "entityName" : "", "memoryName" : "OAGMemory", "segmentName" : "oag_nodes" } } } ] }, "name" : "", "type" : "::oag::EdgeBase" }
{ "_id" : { "$oid" : "54bc2b393d76ac01863c7f72" }, "attrs" : { "action" : [ { "value" : { "typeName" : "::memoryx::EntityRefBase", "value" : { "entityId" : "54bc2b393d76ac01863c7f6f", "entityName" : "CircleWiping", "memoryName" : "OAGMemory", "segmentName" : "oag_actions" } } } ], "endNode" : [ { "value" : { "typeName" : "::memoryx::EntityRefBase", "value" : { "entityId" : "54bc2b45ea5332d64bb04f12", "entityName" : "", "memoryName" : "OAGMemory", "segmentName" : "oag_nodes" } } } ], "startNode" : [ { "value" : { "typeName" : "::memoryx::EntityRefBase", "value" : { "entityId" : "54bc2b45ea5332d64bb04f12", "entityName" : "", "memoryName" : "OAGMemory", "segmentName" : "oag_nodes" } } } ] }, "name" : "", "type" : "::oag::EdgeBase" }
{ "_id" : { "$oid" : "54bc2b393d76ac01863c7f76" }, "attrs" : { "action" : [ { "value" : { "typeName" : "::memoryx::EntityRefBase", "value" : { "entityId" : "54bc2b393d76ac01863c7f73", "entityName" : "CircleWiping", "memoryName" : "OAGMemory", "segmentName" : "oag_actions" } } } ], "endNode" : [ { "value" : { "typeName" : "::memoryx::EntityRefBase", "value" : { "entityId" : "54bc2b45ea5332d64bb04f10", "entityName" : "", "memoryName" : "OAGMemory", "segmentName" : "oag_nodes" } } } ], "startNode" : [ { "value" : { "typeName" : "::memoryx::EntityRefBase", "value" : { "entityId" : "54bc2b45ea5332d64bb04f12", "entityName" : "", "memoryName" : "OAGMemory", "segmentName" : "oag_nodes" } } } ] }, "name" : "", "type" : "::oag::EdgeBase" }
{ "_id" : { "$oid" : "54bc2b393d76ac01863c7f7a" }, "attrs" : { "action" : [ { "value" : { "typeName" : "::memoryx::EntityRefBase", "value" : { "entityId" : "54bc2b393d76ac01863c7f77", "entityName" : "Retreat", "memoryName" : "OAGMemory", "segmentName" : "oag_actions" } } } ], "endNode" : [ { "value" : { "typeName" : "::memoryx::EntityRefBase", "value" : { "entityId" : "54bc2b45ea5332d64bb04f0d", "entityName" : "", "memoryName" : "OAGMemory", "segmentName" : "oag_nodes" } } } ], "startNode" : [ { "value" : { "typeName" : "::memoryx::EntityRefBase", "value" : { "entityId" : "54bc2b45ea5332d64bb04f10", "entityName" : "", "memoryName" : "OAGMemory", "segmentName" : "oag_nodes" } } } ] }, "name" : "", "type" : "::oag::EdgeBase" }
{ "_id" : { "$oid" : "54bc2b40ea5332d64bb04ed2" }, "attrs" : { "action" : [ { "value" : { "typeName" : "::memoryx::EntityRefBase", "value" : { "entityId" : "54bc2b40ea5332d64bb04ecf", "entityName" : "RelaxArms", "memoryName" : "OAGMemory", "segmentName" : "oag_actions" } } } ], "endNode" : [ { "value" : { "typeName" : "::memoryx::EntityRefBase", "value" : { "entityId" : "54bc2b45ea5332d64bb04f0c", "entityName" : "", "memoryName" : "OAGMemory", "segmentName" : "oag_nodes" } } } ], "startNode" : [ { "value" : { "typeName" : "::memoryx::EntityRefBase", "value" : { "entityId" : "54bc2b45ea5332d64bb04f0d", "entityName" : "", "memoryName" : "OAGMemory", "segmentName" : "oag_nodes" } } } ] }, "name" : "", "type" : "::oag::EdgeBase" }
{ "_id" : { "$oid" : "54bc2b40ea5332d64bb04ed6" }, "attrs" : { "action" : [ { "value" : { "typeName" : "::memoryx::EntityRefBase", "value" : { "entityId" : "54bc2b40ea5332d64bb04ed3", "entityName" : "Idle", "memoryName" : "OAGMemory", "segmentName" : "oag_actions" } } } ], "endNode" : [ { "value" : { "typeName" : "::memoryx::EntityRefBase", "value" : { "entityId" : "54bc2b45ea5332d64bb04f0c", "entityName" : "", "memoryName" : "OAGMemory", "segmentName" : "oag_nodes" } } } ], "startNode" : [ { "value" : { "typeName" : "::memoryx::EntityRefBase", "value" : { "entityId" : "54bc2b45ea5332d64bb04f0c", "entityName" : "", "memoryName" : "OAGMemory", "segmentName" : "oag_nodes" } } } ] }, "name" : "", "type" : "::oag::EdgeBase" }
{ "_id" : { "$oid" : "54bc2b40ea5332d64bb04eda" }, "attrs" : { "action" : [ { "value" : { "typeName" : "::memoryx::EntityRefBase", "value" : { "entityId" : "54bc2b40ea5332d64bb04ed7", "entityName" : "Approach", "memoryName" : "OAGMemory", "segmentName" : "oag_actions" } } } ], "endNode" : [ { "value" : { "typeName" : "::memoryx::EntityRefBase", "value" : { "entityId" : "54bc2b45ea5332d64bb04f14", "entityName" : "", "memoryName" : "OAGMemory", "segmentName" : "oag_nodes" } } } ], "startNode" : [ { "value" : { "typeName" : "::memoryx::EntityRefBase", "value" : { "entityId" : "54bc2b45ea5332d64bb04f0c", "entityName" : "", "memoryName" : "OAGMemory", "segmentName" : "oag_nodes" } } } ] }, "name" : "", "type" : "::oag::EdgeBase" }
{ "_id" : { "$oid" : "54bc2b41ea5332d64bb04ede" }, "attrs" : { "action" : [ { "value" : { "typeName" : "::memoryx::EntityRefBase", "value" : { "entityId" : "54bc2b41ea5332d64bb04edb", "entityName" : "Lift", "memoryName" : "OAGMemory", "segmentName" : "oag_actions" } } } ], "endNode" : [ { "value" : { "typeName" : "::memoryx::EntityRefBase", "value" : { "entityId" : "54bc2b45ea5332d64bb04f19", "entityName" : "", "memoryName" : "OAGMemory", "segmentName" : "oag_nodes" } } } ], "startNode" : [ { "value" : { "typeName" : "::memoryx::EntityRefBase", "value" : { "entityId" : "54bc2b45ea5332d64bb04f14", "entityName" : "", "memoryName" : "OAGMemory", "segmentName" : "oag_nodes" } } } ] }, "name" : "", "type" : "::oag::EdgeBase" }
{ "_id" : { "$oid" : "54bc2b41ea5332d64bb04ee2" }, "attrs" : { "action" : [ { "value" : { "typeName" : "::memoryx::EntityRefBase", "value" : { "entityId" : "54bc2b41ea5332d64bb04edf", "entityName" : "Toss", "memoryName" : "OAGMemory", "segmentName" : "oag_actions" } } } ], "endNode" : [ { "value" : { "typeName" : "::memoryx::EntityRefBase", "value" : { "entityId" : "54bc2b45ea5332d64bb04f16", "entityName" : "", "memoryName" : "OAGMemory", "segmentName" : "oag_nodes" } } } ], "startNode" : [ { "value" : { "typeName" : "::memoryx::EntityRefBase", "value" : { "entityId" : "54bc2b45ea5332d64bb04f19", "entityName" : "", "memoryName" : "OAGMemory", "segmentName" : "oag_nodes" } } } ] }, "name" : "", "type" : "::oag::EdgeBase" }
{ "_id" : { "$oid" : "54bc2b41ea5332d64bb04ee6" }, "attrs" : { "action" : [ { "value" : { "typeName" : "::memoryx::EntityRefBase", "value" : { "entityId" : "54bc2b41ea5332d64bb04ee3", "entityName" : "Idle", "memoryName" : "OAGMemory", "segmentName" : "oag_actions" } } } ], "endNode" : [ { "value" : { "typeName" : "::memoryx::EntityRefBase", "value" : { "entityId" : "54bc2b45ea5332d64bb04f16", "entityName" : "", "memoryName" : "OAGMemory", "segmentName" : "oag_nodes" } } } ], "startNode" : [ { "value" : { "typeName" : "::memoryx::EntityRefBase", "value" : { "entityId" : "54bc2b45ea5332d64bb04f16", "entityName" : "", "memoryName" : "OAGMemory", "segmentName" : "oag_nodes" } } } ] }, "name" : "", "type" : "::oag::EdgeBase" }
{ "_id" : { "$oid" : "54bc2b42ea5332d64bb04eea" }, "attrs" : { "action" : [ { "value" : { "typeName" : "::memoryx::EntityRefBase", "value" : { "entityId" : "54bc2b42ea5332d64bb04ee7", "entityName" : "Shaking", "memoryName" : "OAGMemory", "segmentName" : "oag_actions" } } } ], "endNode" : [ { "value" : { "typeName" : "::memoryx::EntityRefBase", "value" : { "entityId" : "54bc2b45ea5332d64bb04f16", "entityName" : "", "memoryName" : "OAGMemory", "segmentName" : "oag_nodes" } } } ], "startNode" : [ { "value" : { "typeName" : "::memoryx::EntityRefBase", "value" : { "entityId" : "54bc2b45ea5332d64bb04f16", "entityName" : "", "memoryName" : "OAGMemory", "segmentName" : "oag_nodes" } } } ] }, "name" : "", "type" : "::oag::EdgeBase" }
{ "_id" : { "$oid" : "54bc2b42ea5332d64bb04eee" }, "attrs" : { "action" : [ { "value" : { "typeName" : "::memoryx::EntityRefBase", "value" : { "entityId" : "54bc2b42ea5332d64bb04eeb", "entityName" : "Toss", "memoryName" : "OAGMemory", "segmentName" : "oag_actions" } } } ], "endNode" : [ { "value" : { "typeName" : "::memoryx::EntityRefBase", "value" : { "entityId" : "54bc2b45ea5332d64bb04f16", "entityName" : "", "memoryName" : "OAGMemory", "segmentName" : "oag_nodes" } } } ], "startNode" : [ { "value" : { "typeName" : "::memoryx::EntityRefBase", "value" : { "entityId" : "54bc2b45ea5332d64bb04f16", "entityName" : "", "memoryName" : "OAGMemory", "segmentName" : "oag_nodes" } } } ] }, "name" : "", "type" : "::oag::EdgeBase" }
{ "_id" : { "$oid" : "54bc2b42ea5332d64bb04ef2" }, "attrs" : { "action" : [ { "value" : { "typeName" : "::memoryx::EntityRefBase", "value" : { "entityId" : "54bc2b42ea5332d64bb04eef", "entityName" : "Pour", "memoryName" : "OAGMemory", "segmentName" : "oag_actions" } } } ], "endNode" : [ { "value" : { "typeName" : "::memoryx::EntityRefBase", "value" : { "entityId" : "54bc2b45ea5332d64bb04f15", "entityName" : "", "memoryName" : "OAGMemory", "segmentName" : "oag_nodes" } } } ], "startNode" : [ { "value" : { "typeName" : "::memoryx::EntityRefBase", "value" : { "entityId" : "54bc2b45ea5332d64bb04f16", "entityName" : "", "memoryName" : "OAGMemory", "segmentName" : "oag_nodes" } } } ] }, "name" : "", "type" : "::oag::EdgeBase" }
{ "_id" : { "$oid" : "54bc2b43ea5332d64bb04ef6" }, "attrs" : { "action" : [ { "value" : { "typeName" : "::memoryx::EntityRefBase", "value" : { "entityId" : "54bc2b42ea5332d64bb04ef3", "entityName" : "Idle", "memoryName" : "OAGMemory", "segmentName" : "oag_actions" } } } ], "endNode" : [ { "value" : { "typeName" : "::memoryx::EntityRefBase", "value" : { "entityId" : "54bc2b45ea5332d64bb04f17", "entityName" : "", "memoryName" : "OAGMemory", "segmentName" : "oag_nodes" } } } ], "startNode" : [ { "value" : { "typeName" : "::memoryx::EntityRefBase", "value" : { "entityId" : "54bc2b45ea5332d64bb04f15", "entityName" : "", "memoryName" : "OAGMemory", "segmentName" : "oag_nodes" } } } ] }, "name" : "", "type" : "::oag::EdgeBase" }
{ "_id" : { "$oid" : "54bc2b43ea5332d64bb04efa" }, "attrs" : { "action" : [ { "value" : { "typeName" : "::memoryx::EntityRefBase", "value" : { "entityId" : "54bc2b43ea5332d64bb04ef7", "entityName" : "DripOff", "memoryName" : "OAGMemory", "segmentName" : "oag_actions" } } } ], "endNode" : [ { "value" : { "typeName" : "::memoryx::EntityRefBase", "value" : { "entityId" : "54bc2b45ea5332d64bb04f18", "entityName" : "", "memoryName" : "OAGMemory", "segmentName" : "oag_nodes" } } } ], "startNode" : [ { "value" : { "typeName" : "::memoryx::EntityRefBase", "value" : { "entityId" : "54bc2b45ea5332d64bb04f17", "entityName" : "", "memoryName" : "OAGMemory", "segmentName" : "oag_nodes" } } } ] }, "name" : "", "type" : "::oag::EdgeBase" }
{ "_id" : { "$oid" : "54bc2b43ea5332d64bb04efe" }, "attrs" : { "action" : [ { "value" : { "typeName" : "::memoryx::EntityRefBase", "value" : { "entityId" : "54bc2b43ea5332d64bb04efb", "entityName" : "Place", "memoryName" : "OAGMemory", "segmentName" : "oag_actions" } } } ], "endNode" : [ { "value" : { "typeName" : "::memoryx::EntityRefBase", "value" : { "entityId" : "54bc2b45ea5332d64bb04f0e", "entityName" : "", "memoryName" : "OAGMemory", "segmentName" : "oag_nodes" } } } ], "startNode" : [ { "value" : { "typeName" : "::memoryx::EntityRefBase", "value" : { "entityId" : "54bc2b45ea5332d64bb04f18", "entityName" : "", "memoryName" : "OAGMemory", "segmentName" : "oag_nodes" } } } ] }, "name" : "", "type" : "::oag::EdgeBase" }
{ "_id" : { "$oid" : "54bc2b43ea5332d64bb04f02" }, "attrs" : { "action" : [ { "value" : { "typeName" : "::memoryx::EntityRefBase", "value" : { "entityId" : "54bc2b43ea5332d64bb04eff", "entityName" : "Retreat", "memoryName" : "OAGMemory", "segmentName" : "oag_actions" } } } ], "endNode" : [ { "value" : { "typeName" : "::memoryx::EntityRefBase", "value" : { "entityId" : "54bc2b45ea5332d64bb04f0b", "entityName" : "", "memoryName" : "OAGMemory", "segmentName" : "oag_nodes" } } } ], "startNode" : [ { "value" : { "typeName" : "::memoryx::EntityRefBase", "value" : { "entityId" : "54bc2b45ea5332d64bb04f0e", "entityName" : "", "memoryName" : "OAGMemory", "segmentName" : "oag_nodes" } } } ] }, "name" : "", "type" : "::oag::EdgeBase" }
{ "_id" : { "$oid" : "54bc2b43ea5332d64bb04f06" }, "attrs" : { "action" : [ { "value" : { "typeName" : "::memoryx::EntityRefBase", "value" : { "entityId" : "54bc2b43ea5332d64bb04f03", "entityName" : "Idle", "memoryName" : "OAGMemory", "segmentName" : "oag_actions" } } } ], "endNode" : [ { "value" : { "typeName" : "::memoryx::EntityRefBase", "value" : { "entityId" : "54bc2b45ea5332d64bb04f0d", "entityName" : "", "memoryName" : "OAGMemory", "segmentName" : "oag_nodes" } } } ], "startNode" : [ { "value" : { "typeName" : "::memoryx::EntityRefBase", "value" : { "entityId" : "54bc2b45ea5332d64bb04f0b", "entityName" : "", "memoryName" : "OAGMemory", "segmentName" : "oag_nodes" } } } ] }, "name" : "", "type" : "::oag::EdgeBase" }
{ "_id" : { "$oid" : "54bc2b43ea5332d64bb04f0a" }, "attrs" : { "action" : [ { "value" : { "typeName" : "::memoryx::EntityRefBase", "value" : { "entityId" : "54bc2b43ea5332d64bb04f07", "entityName" : "Approach", "memoryName" : "OAGMemory", "segmentName" : "oag_actions" } } } ], "endNode" : [ { "value" : { "typeName" : "::memoryx::EntityRefBase", "value" : { "entityId" : "54bc2b45ea5332d64bb04f0d", "entityName" : "", "memoryName" : "OAGMemory", "segmentName" : "oag_nodes" } } } ], "startNode" : [ { "value" : { "typeName" : "::memoryx::EntityRefBase", "value" : { "entityId" : "54bc2b45ea5332d64bb04f0d", "entityName" : "", "memoryName" : "OAGMemory", "segmentName" : "oag_nodes" } } } ] }, "name" : "", "type" : "::oag::EdgeBase" }
