{ "_id" : { "$oid" : "54b80c840db8b9ab49b864ff" }, "attrs" : { "adjacentNodes" : [ { "value" : { "typeName" : "::memoryx::EntityRefBase", "value" : { "entityId" : "54b80c840db8b9ab49b86502", "entityName" : "", "memoryName" : "PriorKnowledge", "segmentName" : "graphs" } } } ], "position" : [ { "value" : { "typeName" : "::armarx::FramedVector3Base", "value" : { "agent" : "", "frame" : "table", "x" : 3400, "y" : 7300, "z" : 1000 } } } ], "scene" : [ { "value" : { "typeName" : "::armarx::StringVariantData", "value" : "testSceneName" } } ] }, "name" : "", "type" : "::memoryx::GraphNodeBase" }
{ "_id" : { "$oid" : "54b80c840db8b9ab49b86500" }, "attrs" : { "adjacentNodes" : [ { "value" : { "typeName" : "::memoryx::EntityRefBase", "value" : { "entityId" : "54b80c840db8b9ab49b86502", "entityName" : "", "memoryName" : "PriorKnowledge", "segmentName" : "graphs" } } } ], "position" : [ { "value" : { "typeName" : "::armarx::FramedVector3Base", "value" : { "agent" : "", "frame" : "sink", "x" : 2500, "y" : 9700, "z" : 1000 } } } ], "scene" : [ { "value" : { "typeName" : "::armarx::StringVariantData", "value" : "testSceneName" } } ] }, "name" : "", "type" : "::memoryx::GraphNodeBase" }
{ "_id" : { "$oid" : "54b80c840db8b9ab49b86501" }, "attrs" : { "adjacentNodes" : [ { "value" : { "typeName" : "::memoryx::EntityRefBase", "value" : { "entityId" : "54b80c840db8b9ab49b86502", "entityName" : "", "memoryName" : "PriorKnowledge", "segmentName" : "graphs" } } } ], "position" : [ { "value" : { "typeName" : "::armarx::FramedVector3Base", "value" : { "agent" : "", "frame" : "fridge", "x" : 2150, "y" : 7750, "z" : 1000 } } } ], "scene" : [ { "value" : { "typeName" : "::armarx::StringVariantData", "value" : "testSceneName" } } ] }, "name" : "", "type" : "::memoryx::GraphNodeBase" }
{ "_id" : { "$oid" : "54b80c840db8b9ab49b86502" }, "attrs" : { "adjacentNodes" : [ { "value" : { "typeName" : "::memoryx::EntityRefBase", "value" : { "entityId" : "54b80c840db8b9ab49b864ff", "entityName" : "", "memoryName" : "PriorKnowledge", "segmentName" : "graphs" } } }, { "value" : { "typeName" : "::memoryx::EntityRefBase", "value" : { "entityId" : "54b80c840db8b9ab49b86503", "entityName" : "", "memoryName" : "PriorKnowledge", "segmentName" : "graphs" } } }, { "value" : { "typeName" : "::memoryx::EntityRefBase", "value" : { "entityId" : "54b80c840db8b9ab49b86501", "entityName" : "", "memoryName" : "PriorKnowledge", "segmentName" : "graphs" } } }, { "value" : { "typeName" : "::memoryx::EntityRefBase", "value" : { "entityId" : "54b80c840db8b9ab49b86500", "entityName" : "", "memoryName" : "PriorKnowledge", "segmentName" : "graphs" } } } ], "position" : [ { "value" : { "typeName" : "::armarx::FramedVector3Base", "value" : { "agent" : "", "frame" : "hub1", "x" : 2900, "y" : 8000, "z" : 1000 } } } ], "scene" : [ { "value" : { "typeName" : "::armarx::StringVariantData", "value" : "testSceneName" } } ] }, "name" : "", "type" : "::memoryx::GraphNodeBase" }
{ "_id" : { "$oid" : "54b80c840db8b9ab49b86503" }, "attrs" : { "adjacentNodes" : [ { "value" : { "typeName" : "::memoryx::EntityRefBase", "value" : { "entityId" : "54b80c840db8b9ab49b86504", "entityName" : "", "memoryName" : "PriorKnowledge", "segmentName" : "graphs" } } }, { "value" : { "typeName" : "::memoryx::EntityRefBase", "value" : { "entityId" : "54b80c840db8b9ab49b86502", "entityName" : "", "memoryName" : "PriorKnowledge", "segmentName" : "graphs" } } } ], "position" : [ { "value" : { "typeName" : "::armarx::FramedVector3Base", "value" : { "agent" : "", "frame" : "hub2", "x" : 3750, "y" : 5150, "z" : 1000 } } } ], "scene" : [ { "value" : { "typeName" : "::armarx::StringVariantData", "value" : "testSceneName" } } ] }, "name" : "", "type" : "::memoryx::GraphNodeBase" }
{ "_id" : { "$oid" : "54b80c840db8b9ab49b86504" }, "attrs" : { "adjacentNodes" : [ { "value" : { "typeName" : "::memoryx::EntityRefBase", "value" : { "entityId" : "54b80c840db8b9ab49b86505", "entityName" : "", "memoryName" : "PriorKnowledge", "segmentName" : "graphs" } } }, { "value" : { "typeName" : "::memoryx::EntityRefBase", "value" : { "entityId" : "54b80c840db8b9ab49b86503", "entityName" : "", "memoryName" : "PriorKnowledge", "segmentName" : "graphs" } } } ], "position" : [ { "value" : { "typeName" : "::armarx::FramedVector3Base", "value" : { "agent" : "", "frame" : "hub3", "x" : 3400, "y" : 2200, "z" : 1000 } } } ], "scene" : [ { "value" : { "typeName" : "::armarx::StringVariantData", "value" : "testSceneName" } } ] }, "name" : "", "type" : "::memoryx::GraphNodeBase" }
{ "_id" : { "$oid" : "54b80c840db8b9ab49b86505" }, "attrs" : { "adjacentNodes" : [ { "value" : { "typeName" : "::memoryx::EntityRefBase", "value" : { "entityId" : "54b80c840db8b9ab49b86506", "entityName" : "", "memoryName" : "PriorKnowledge", "segmentName" : "graphs" } } }, { "value" : { "typeName" : "::memoryx::EntityRefBase", "value" : { "entityId" : "54b80c840db8b9ab49b86504", "entityName" : "", "memoryName" : "PriorKnowledge", "segmentName" : "graphs" } } } ], "position" : [ { "value" : { "typeName" : "::armarx::FramedVector3Base", "value" : { "agent" : "", "frame" : "hub4", "x" : 1900, "y" : 3000, "z" : 1000 } } } ], "scene" : [ { "value" : { "typeName" : "::armarx::StringVariantData", "value" : "testSceneName" } } ] }, "name" : "", "type" : "::memoryx::GraphNodeBase" }
{ "_id" : { "$oid" : "54b80c840db8b9ab49b86506" }, "attrs" : { "adjacentNodes" : [ { "value" : { "typeName" : "::memoryx::EntityRefBase", "value" : { "entityId" : "54b80c840db8b9ab49b86505", "entityName" : "", "memoryName" : "PriorKnowledge", "segmentName" : "graphs" } } } ], "position" : [ { "value" : { "typeName" : "::armarx::FramedVector3Base", "value" : { "agent" : "", "frame" : "counter", "x" : 1890, "y" : 4050, "z" : 1000 } } } ], "scene" : [ { "value" : { "typeName" : "::armarx::StringVariantData", "value" : "testSceneName" } } ] }, "name" : "", "type" : "::memoryx::GraphNodeBase" }
